

[
    {
      "name": "STE BERTRAND FLAMENT",
      "logo": "flament_mobil_home.png",
      "description": "La STE BERTRAND FLAMENT est distributeur de mobils-homes neufs : gamme française NAUTILHOME / LOUISIANE; gamme anglaise VICTORY et propose également des occasions récentes de toutes marques de 2000 à 50 000 €. Et encore pour améliorer votre confort, distributeur de terrasses CLAIRVAL & TERRASSES DU LYS: Le parc du Crotoy dispose d'un stock  permanent de 40 à 50 modèles.",
      "link": "https://www.stebertrandflament.fr/"
    }
]